{
  "prepare_queue": {
    "installed": [],
    "uninstalled": []
  },
  "config_munge": {
    "files": {
      "AndroidManifest.xml": {
        "parents": {
          "/manifest/application": [
            {
              "xml": "<activity android:configChanges=\"keyboard|keyboardHidden|orientation|screenLayout|uiMode|screenSize|smallestScreenSize\" android:name=\"com.google.android.gms.ads.AdActivity\" android:theme=\"@android:style/Theme.Translucent\" />",
              "count": 1
            },
            {
              "xml": "<receiver android:enabled=\"true\" android:name=\"com.google.android.gms.analytics.AnalyticsReceiver\"><intent-filter><action android:name=\"com.google.android.gms.analytics.ANALYTICS_DISPATCH\" /></intent-filter></receiver>",
              "count": 1
            },
            {
              "xml": "<service android:enabled=\"true\" android:exported=\"false\" android:name=\"com.google.android.gms.analytics.AnalyticsService\" />",
              "count": 1
            },
            {
              "xml": "<receiver android:enabled=\"true\" android:exported=\"true\" android:name=\"com.google.android.gms.analytics.CampaignTrackingReceiver\"><intent-filter><action android:name=\"com.android.vending.INSTALL_REFERRER\" /></intent-filter></receiver>",
              "count": 1
            },
            {
              "xml": "<service android:enabled=\"true\" android:exported=\"false\" android:name=\"com.google.android.gms.analytics.CampaignTrackingService\" />",
              "count": 1
            },
            {
              "xml": "<provider android:authorities=\"${applicationId}.sharing.provider\" android:exported=\"false\" android:grantUriPermissions=\"true\" android:name=\"nl.xservices.plugins.FileProvider\"><meta-data android:name=\"android.support.FILE_PROVIDER_PATHS\" android:resource=\"@xml/sharing_paths\" /></provider>",
              "count": 1
            }
          ],
          "/*": [
            {
              "xml": "<uses-permission android:name=\"android.permission.INTERNET\" />",
              "count": 2
            },
            {
              "xml": "<uses-permission android:name=\"android.permission.ACCESS_NETWORK_STATE\" />",
              "count": 2
            },
            {
              "xml": "<uses-permission android:name=\"android.permission.WRITE_EXTERNAL_STORAGE\" />",
              "count": 1
            }
          ]
        }
      },
      "res/xml/config.xml": {
        "parents": {
          "/*": [
            {
              "xml": "<feature name=\"AdMob\"><param name=\"android-package\" value=\"com.rjfun.cordova.admob.AdMobPlugin\" /><param name=\"onload\" value=\"true\" /></feature>",
              "count": 1
            },
            {
              "xml": "<feature name=\"BrowserTab\"><param name=\"android-package\" value=\"com.google.cordova.plugin.browsertab.BrowserTab\" /></feature>",
              "count": 1
            },
            {
              "xml": "<feature name=\"Device\"><param name=\"android-package\" value=\"org.apache.cordova.device.Device\" /></feature>",
              "count": 1
            },
            {
              "xml": "<feature name=\"UniversalAnalytics\"><param name=\"android-package\" value=\"com.danielcwilson.plugins.analytics.UniversalAnalyticsPlugin\" /></feature>",
              "count": 1
            },
            {
              "xml": "<feature name=\"SplashScreen\"><param name=\"android-package\" value=\"org.apache.cordova.splashscreen.SplashScreen\" /><param name=\"onload\" value=\"true\" /></feature>",
              "count": 1
            },
            {
              "xml": "<feature name=\"StatusBar\"><param name=\"android-package\" value=\"org.apache.cordova.statusbar.StatusBar\" /><param name=\"onload\" value=\"true\" /></feature>",
              "count": 1
            },
            {
              "xml": "<feature name=\"Whitelist\"><param name=\"android-package\" value=\"org.apache.cordova.whitelist.WhitelistPlugin\" /><param name=\"onload\" value=\"true\" /></feature>",
              "count": 1
            },
            {
              "xml": "<feature name=\"SocialSharing\"><param name=\"android-package\" value=\"nl.xservices.plugins.SocialSharing\" /></feature>",
              "count": 1
            },
            {
              "xml": "<feature name=\"Keyboard\"><param name=\"android-package\" value=\"io.ionic.keyboard.IonicKeyboard\" /><param name=\"onload\" value=\"true\" /></feature>",
              "count": 1
            }
          ]
        }
      }
    }
  },
  "installed_plugins": {
    "cordova-plugin-extension": {
      "PACKAGE_NAME": "celerixcode.adivinanzas"
    },
    "cordova-plugin-admobpro": {
      "PACKAGE_NAME": "celerixcode.adivinanzas"
    },
    "cordova-plugin-browsertab": {
      "PACKAGE_NAME": "celerixcode.adivinanzas"
    },
    "cordova-plugin-device": {
      "PACKAGE_NAME": "celerixcode.adivinanzas"
    },
    "cordova-plugin-google-analytics": {
      "PACKAGE_NAME": "celerixcode.adivinanzas"
    },
    "cordova-plugin-splashscreen": {
      "PACKAGE_NAME": "celerixcode.adivinanzas"
    },
    "cordova-plugin-statusbar": {
      "PACKAGE_NAME": "celerixcode.adivinanzas"
    },
    "cordova-plugin-whitelist": {
      "PACKAGE_NAME": "celerixcode.adivinanzas"
    },
    "es6-promise-plugin": {
      "PACKAGE_NAME": "celerixcode.adivinanzas"
    },
    "cordova-plugin-x-socialsharing": {
      "PACKAGE_NAME": "celerixcode.adivinanzas"
    },
    "ionic-plugin-keyboard": {
      "PACKAGE_NAME": "celerixcode.adivinanzas"
    }
  },
  "dependent_plugins": {},
  "modules": [
    {
      "id": "cordova-plugin-admobpro.AdMob",
      "file": "plugins/cordova-plugin-admobpro/www/AdMob.js",
      "pluginId": "cordova-plugin-admobpro",
      "clobbers": [
        "window.AdMob"
      ]
    },
    {
      "id": "cordova-plugin-browsertab.BrowserTab",
      "file": "plugins/cordova-plugin-browsertab/www/browsertab.js",
      "pluginId": "cordova-plugin-browsertab",
      "clobbers": [
        "cordova.plugins.browsertab"
      ]
    },
    {
      "id": "cordova-plugin-device.device",
      "file": "plugins/cordova-plugin-device/www/device.js",
      "pluginId": "cordova-plugin-device",
      "clobbers": [
        "device"
      ]
    },
    {
      "id": "cordova-plugin-google-analytics.UniversalAnalytics",
      "file": "plugins/cordova-plugin-google-analytics/www/analytics.js",
      "pluginId": "cordova-plugin-google-analytics",
      "clobbers": [
        "analytics",
        "ga"
      ]
    },
    {
      "id": "cordova-plugin-splashscreen.SplashScreen",
      "file": "plugins/cordova-plugin-splashscreen/www/splashscreen.js",
      "pluginId": "cordova-plugin-splashscreen",
      "clobbers": [
        "navigator.splashscreen"
      ]
    },
    {
      "id": "cordova-plugin-statusbar.statusbar",
      "file": "plugins/cordova-plugin-statusbar/www/statusbar.js",
      "pluginId": "cordova-plugin-statusbar",
      "clobbers": [
        "window.StatusBar"
      ]
    },
    {
      "id": "es6-promise-plugin.Promise",
      "file": "plugins/es6-promise-plugin/www/promise.js",
      "pluginId": "es6-promise-plugin",
      "runs": true
    },
    {
      "id": "cordova-plugin-x-socialsharing.SocialSharing",
      "file": "plugins/cordova-plugin-x-socialsharing/www/SocialSharing.js",
      "pluginId": "cordova-plugin-x-socialsharing",
      "clobbers": [
        "window.plugins.socialsharing"
      ]
    },
    {
      "id": "ionic-plugin-keyboard.keyboard",
      "file": "plugins/ionic-plugin-keyboard/www/android/keyboard.js",
      "pluginId": "ionic-plugin-keyboard",
      "clobbers": [
        "cordova.plugins.Keyboard"
      ],
      "runs": true
    }
  ],
  "plugin_metadata": {
    "cordova-plugin-extension": "1.5.2",
    "cordova-plugin-admobpro": "2.29.23",
    "cordova-plugin-browsertab": "0.2.0",
    "cordova-plugin-device": "1.1.4",
    "cordova-plugin-google-analytics": "1.8.3",
    "cordova-plugin-splashscreen": "4.0.3",
    "cordova-plugin-statusbar": "2.2.2",
    "cordova-plugin-whitelist": "1.3.1",
    "es6-promise-plugin": "4.1.0",
    "cordova-plugin-x-socialsharing": "5.1.8",
    "ionic-plugin-keyboard": "2.2.1"
  }
}